digraph wmem {
node [ shape = circle ];

P0 [ label="people" ];
P1 [ label="P1" ];
P2 [ label="P2" ];
P3 [ label="P3" ];
P1_1 [ label="Fred" ];
P1_2 [ label="40" ];
P2_1 [ label="Valerie" ];
P2_2 [ label="small" ];
P3_1 [ label="Eric" ];

node [ shape = plaintext ];
P0 -> P1 [ label = "person"];
P0 -> P2 [ label = "person"];
P1 -> P1_1 [ label = "name"];
P1 -> P1_2 [ label = "age"];
P2 -> P2_1 [ label = "name"];
P2 -> P2_2 [ label = "size"];
P3 -> P3_1 [ label = "name"];
 
}